timestamp,speed in km/h,latitude,longitude
1557660680836,0,50.858355349700865,12.162946570149
1557660681836,0,50.858360261327334,12.162981917970319
1557660683831,0,50.85834826931045,12.162978492357965
1557660684831,0,50.8583205441323,12.163001059338558
1557660685831,0,50.85831935152361,12.16300772414685
1557660686999,0,50.85832094678248,12.16301379094632
1557660687999,0,50.85831737657899,12.163004365307149
1557660688999,1,50.85830354519137,12.162999349523117
1557660689999,3,50.85829386399404,12.162993291381504
1557660690999,5,50.85827880903896,12.163001535482888
1557660691999,6,50.858263096479014,12.16300881528177
1557660692999,5,50.85824789422675,12.16301084181905
1557660693999,0,50.85823633073833,12.163004243739955
1557660694999,0,50.85824141738843,12.16300569631363
1557660695999,0,50.8582473798579,12.163008499086484
1557660696999,0,50.85825138378337,12.163009161700023
1557660697999,0,50.85825651246971,12.163009602945156
1557660698999,1,50.858254166788655,12.163005882382762
1557660699999,0,50.85825544730551,12.162991595589837
1557660700999,4,50.85826063343173,12.16298982243158
1557660701999,7,50.85828181392962,12.163002975361064
1557660702999,8,50.85830701271278,12.163020015548224
1557660703999,9,50.858336980842026,12.163041286678078
1557660704999,9,50.8583670165547,12.163060139402717
1557660705999,10,50.85839362221315,12.163075276533466
1557660706999,10,50.85842251513255,12.163094748275665
1557660707999,10,50.8584504102826,12.163113247722235
1557660708999,10,50.85847622552036,12.163128784852875
1557660709999,9,50.858499317142794,12.163142352698296
1557660710999,9,50.85851858244005,12.163158344929585
1557660711999,8,50.8585381870098,12.163174343316367
1557660712999,8,50.85855728640455,12.163187563508679
1557660713999,8,50.85857350516102,12.163200450931404
1557660714999,8,50.85859189122658,12.163211397585162
1557660715999,8,50.8586090086772,12.163226768727464
1557660716999,8,50.858622797716805,12.163247964451807
1557660717999,8,50.85863398189158,12.16327161346877
1557660718999,8,50.85864901608561,12.16331360418915
1557660719999,8,50.85865347973081,12.163335350447872
1557660720999,8,50.85866517145714,12.163365729112472
1557660721999,4,50.858669375002826,12.16338072583455
1557660722999,2,50.858668527821195,12.163377520776454
1557660723999,1,50.858674255803955,12.163375341909198
1557660724999,3,50.858690475121655,12.1633712539316
1557660725999,6,50.85871392305606,12.163348899145845
1557660726999,8,50.85874118178662,12.163329141470115
1557660727999,10,50.85876987297703,12.16333644407445
1557660728999,14,50.858801438519095,12.16338207792066
1557660729999,17,50.85885122660121,12.163423345652307
1557660730999,21,50.858913433080566,12.163472482329194
1557660731999,23,50.85898007351701,12.163526993624323
1557660732999,30,50.859053672489374,12.163587812949661
1557660733999,33,50.859133575734695,12.16365827651256
1557660734999,36,50.85921574188551,12.163728126872444
1557660735999,38,50.8593036070931,12.163802606916137
1557660736999,39,50.85939107966625,12.163884651033658
1557660737999,41,50.85948082613953,12.163962572624268
1557660738999,42,50.8595716598754,12.164051302356711
1557660739999,42,50.85966550479336,12.16413290709415
1557660740999,42,50.85976328197522,12.164197220955995
1557660741999,41,50.85986167565643,12.164255012577263
1557660742999,41,50.859959761576825,12.164314642812318
1557660743999,42,50.86006443824262,12.164342745200477
1557660744999,43,50.86017634346008,12.16431570990058
1557660745999,43,50.86028790906637,12.164291874673065
1557660746999,45,50.86040345672946,12.164287166626947
1557660747999,46,50.860522592226985,12.164295886036376
1557660748999,47,50.860644327408416,12.164337427000618
1557660749999,46,50.86076428107438,12.164377726806766
1557660750999,45,50.860873905593635,12.16443738661693
1557660751999,45,50.860980761452794,12.164505048391145
1557660752999,43,50.861083871471706,12.164578744311934
1557660753999,42,50.86117717623162,12.16466051496277
1557660754999,39,50.861263492596315,12.164739986428817
1557660755999,36,50.86134335913555,12.164808424742464
1557660756999,32,50.861412321802,12.164867504265068
1557660757999,28,50.86147128906108,12.164917022316294
1557660758999,24,50.8615286233525,12.164954964631667
1557660759999,21,50.86158343061388,12.164952211655896
1557660760999,20,50.861624685789856,12.164912107877937
1557660761999,22,50.86164062043636,12.164831695802095
1557660762999,25,50.861648476650736,12.164731201176899
1557660763999,28,50.86165691443923,12.164625005077246
1557660764999,31,50.86166835229434,12.16449328534156
1557660765999,33,50.86168032245461,12.164343999960801
1557660766999,36,50.86169144045148,12.164183695543256
1557660767999,38,50.86169455145568,12.16401571231644
1557660768999,41,50.86169170536857,12.16384852562892
1557660769999,43,50.86167818743313,12.163672016530871
1557660770999,45,50.86165155111758,12.163491152929755
1557660771999,46,50.86162468328443,12.163312579292937
1557660772999,46,50.86159586366195,12.163130397915435
1557660773999,47,50.86156115678325,12.162952890593369
1557660774999,47,50.86152671569857,12.162768662317974
1557660775999,47,50.86148603133571,12.162590049398368
1557660776999,47,50.861446269594005,12.162408538362039
1557660777999,47,50.86140563253908,12.162228531609157
1557660778999,47,50.8613650402709,12.162051111272193
1557660779999,46,50.861318333688075,12.161879991484641
1557660780999,44,50.86127305834469,12.161719788805637
1557660781999,40,50.86122376977863,12.16158800176244
1557660782999,37,50.861170252757134,12.16148417005688
1557660783999,36,50.86111661310612,12.161381517915439
1557660784999,36,50.861053287009035,12.161280799599577
1557660785999,38,50.86098255164332,12.1611783471833
1557660786999,40,50.860914928494886,12.161061510132873
1557660787999,41,50.86085451781161,12.160931716520636
1557660788999,40,50.860806161367606,12.160791101386062
1557660789999,40,50.860769575244845,12.1606430277601
1557660790999,41,50.86073198075186,12.160493229765285
1557660791999,41,50.86069247069711,12.160340211805531
1557660792999,42,50.86065550015522,12.160182470973043
1557660793999,43,50.8606282186423,12.160015535921639
1557660794999,42,50.860613958572216,12.159847717749075
1557660795999,42,50.86064147744898,12.15968885610121
1557660796999,42,50.86069824808468,12.159547714945962
1557660797999,42,50.86077525666454,12.159431294466692
1557660798999,43,50.8608643683854,12.159340555303672
1557660799999,42,50.860964621773164,12.159279028449028
1557660800999,42,50.86106689754678,12.159231872077791
1557660801999,41,50.861169271290294,12.159196930255517
1557660826134,16,50.86261585628014,12.157212618948456
1557660827131,21,50.86249431942998,12.157194731884339
1557660828111,24,50.86263022771903,12.15725633165913
1557660829129,29,50.862597071864805,12.157356300969928
1557660830115,34,50.8626483602766,12.157431623617104
1557660831115,6,50.86272276726841,12.157366617423179
1557660832115,12,50.86276805647726,12.1575612567653
1557660832999,28,50.862826596537076,12.157711988574247
1557660833999,39,50.862857776805654,12.158006722867336
1557660834999,46,50.86290998982177,12.158199371257616
1557660835999,50,50.86295345773084,12.158386765276768
1557660836999,54,50.86299331657466,12.158590219110078
1557660837999,56,50.863024237975445,12.158798859490977
1557660838999,58,50.863056120650946,12.159020605289564
1557660839999,60,50.863085675993325,12.159248883509973
1557660840999,62,50.863117165335915,12.159485470477328
1557660841999,62,50.86314594053308,12.15972937077016
1557660842999,63,50.863178052946694,12.159984541719123
1557660843999,64,50.86321123259309,12.16023695655828
1557660844999,64,50.86324431262147,12.16048163225464
1557660845999,64,50.86327814204387,12.160729116044209
1557660846999,65,50.863310702588755,12.160977027675008
1557660847999,65,50.863344594101704,12.161227928030453
1557660848999,65,50.86337827915637,12.161483480543849
1557660849999,65,50.863411616161656,12.161733507946618
1557660850999,63,50.8634433837461,12.16197397080229
1557660851999,62,50.86347483023518,12.16221122562761
1557660852999,60,50.86350567015705,12.162438185410991
1557660853999,59,50.8635371138207,12.162664718584825
1557660854999,58,50.86356465166851,12.162881533309433
1557660855999,58,50.86359800946133,12.163100147926537
1557660856999,57,50.863632789560945,12.16331748415663
1557660857999,57,50.8636680712025,12.163536977129578
1557660858999,57,50.86369379059815,12.163761449652402
1557660859999,57,50.863710670381565,12.163987960331838
1557660860999,58,50.86373349231499,12.164219673244133
1557660861999,58,50.86376175920855,12.164459397233598
1557660862999,58,50.8637846098524,12.164682675725755
1557660863999,57,50.86380812039096,12.164904060726162
1557660864999,57,50.863828340560914,12.165124879775226
1557660865999,57,50.86383784866153,12.16534619975875
1557660866999,57,50.863830516876725,12.16556963679635
1557660867999,57,50.86380387901308,12.165788686512268
1557660868999,56,50.8637544166702,12.165997667311364
1557660870000,57,50.863687973633496,12.16620205626384
1557660871000,58,50.8636043732506,12.166402746967346
1557660872000,60,50.86350552351048,12.166587256406984
1557660873000,61,50.86339445748265,12.166760037536868
1557660874000,63,50.863279340280535,12.166931944781924
1557660875000,64,50.86315953226965,12.167098138883732
1557660876000,64,50.86303873543147,12.167275737405411
1557660877000,64,50.86291030944081,12.167435314283725
1557660878000,64,50.86278701416768,12.167606718228006
1557660879000,64,50.86266393224892,12.167775696819852
1557660880000,65,50.862538928611734,12.167941928903033
1557660881000,66,50.86241327670472,12.168112402528036
1557660882000,66,50.86228555969839,12.168281756759098
1557660883000,65,50.86215659370056,12.168447840977407
1557660884000,65,50.86202905471873,12.168613030539548
1557660885000,65,50.86190137577357,12.168778408035132
1557660886000,65,50.86177418787427,12.168945198030833
1557660887000,65,50.861647326269335,12.169114134034842
1557660888000,66,50.861514188586945,12.169273211455845
1557660889000,66,50.861386402504614,12.16944527438235
1557660890000,65,50.861276617116026,12.169643163518375
1557660891000,65,50.86118921253432,12.169864260804594
1557660892000,66,50.861126777463554,12.17010721456774
1557660893000,66,50.861091753823686,12.170366194531848
1557660894000,67,50.86105838775772,12.170628698531056
1557660895000,68,50.86106031291562,12.170900367515316
1557660896000,68,50.861077414369596,12.17117114810162
1557660897000,68,50.86111152759242,12.171431269575434
1557660898000,68,50.8611698401536,12.171683213340716
1557660899000,68,50.86125292509365,12.171913568119562
1557660900000,68,50.86136525443131,12.172110486664565
1557660901000,67,50.86149237357598,12.172282838411766
1557660902000,66,50.8616267561701,12.17244034143158
1557660903000,68,50.86177360962357,12.172574453965517
1557660904000,68,50.861925957194984,12.172704534812189
1557660905000,69,50.86208065181726,12.172833965869643
1557660906000,81,50.862254521124775,12.172933227187508
1557660907000,84,50.862447114001114,12.173037227605658
1557660908000,90,50.862638426334954,12.173165248525262
1557660909000,68,50.86279322725072,12.173229503006787
1557660910000,65,50.86289306486045,12.173421809911659
1557660911000,65,50.862993360236274,12.173606007826239
1557660912000,61,50.863091508167926,12.173776457637846
1557660913000,59,50.86318652968762,12.173941157231697
1557660914000,58,50.86327830372754,12.174117398742853
1557660915000,55,50.86336700732513,12.174286292002654
1557660916000,54,50.86344838993149,12.17445816647623
1557660917000,53,50.863521084364116,12.174637154585108
1557660918000,53,50.86360041591025,12.174811350400972
1557660919000,55,50.86366799918034,12.175002275190147
1557660920000,56,50.86372449914148,12.175202868310434
1557660921000,57,50.86377989216704,12.175405463302544
1557660922000,56,50.86382025046413,12.175626219855413
1557660923000,59,50.863835945916655,12.175895494551167
1557660924000,60,50.86388389096776,12.176136995172621
1557660925000,59,50.86394651169587,12.17635753874381
1557660926000,59,50.86401452305022,12.176569391913599
1557660927000,57,50.86408278482459,12.176781724675436
1557660928000,57,50.8641722816341,12.176969544830563
1557660929000,57,50.864262255400725,12.177149985467583
1557660930000,57,50.86435895040804,12.177316779247795
1557660931000,58,50.86447089264063,12.177457039062329
1557660932000,56,50.86458528093843,12.177588634088773
1557660933000,56,50.864699629161684,12.177712554350546
1557660934000,55,50.86482010213762,12.177820975786501
1557660935000,54,50.864942604582545,12.17792211835581
1557660936000,53,50.86506143434855,12.178021249312375
1557660937000,50,50.865175686304696,12.178109988635784
1557660938000,48,50.86527478431291,12.178226827927555
1557660939000,46,50.86537165108463,12.178335937624361
1557660940000,44,50.86546487044305,12.178439757251352
1557660941000,41,50.865553498629126,12.178541136691688
1557660942000,38,50.86563595549131,12.178632055804364
1557660943000,33,50.86571159831268,12.178708917490507
1557660944000,27,50.86577207768816,12.178780602604403
1557660945000,24,50.86582563292741,12.1788377551379
1557660946000,23,50.8658735197689,12.1788918960836
1557660947000,26,50.865914528055306,12.178963887030685
1557660948000,28,50.865942610035724,12.179063253483616
1557660949000,32,50.865941815325776,12.179183502056997
1557660950000,35,50.86590799222004,12.179304958748599
1557660951000,37,50.86585528404964,12.179427683564468
1557660952000,40,50.86578572610416,12.179560777485325
1557660953000,41,50.865715924001464,12.179701060395304
1557660954000,44,50.86564963259961,12.179843757114416
1557660955000,45,50.86557353789317,12.179981044954902
1557660956000,45,50.86549711849894,12.180120159101394
1557660957000,45,50.86541734138026,12.180264494565778
1557660958000,45,50.865329912085926,12.180384896361824
1557660959000,45,50.865240844585735,12.18051073850903
1557660960000,46,50.86513829640568,12.180608429257534
1557660961000,45,50.86502640550648,12.180684509067843
1557660962000,48,50.86490761859147,12.180737089161514
1557660963000,47,50.86478584085497,12.180778109633959
1557660964000,47,50.86466222263098,12.180805489769067
1557660965000,47,50.86454212655777,12.18083112129142
1557660966000,45,50.86442040159572,12.180822093942833
1557660967000,44,50.864304791166184,12.180807653681306
1557660968000,42,50.86419323621482,12.180803157500256
1557660969000,40,50.864085098070326,12.180808745655703
1557660970000,42,50.86397774052501,12.18081296046728
1557660971000,44,50.863865872521274,12.180797152433506
1557660972000,44,50.86375033055117,12.180787902928012
1557660973000,44,50.86363618740431,12.1807846006258
1557660974000,40,50.8635253729354,12.180762195112482
1557660975000,38,50.86341839809216,12.180771210855651
1557660976000,36,50.86331754538157,12.180751442815
1557660977000,34,50.86322557099879,12.18070705732984
1557660978000,34,50.863139826737765,12.180657932051103
1557660979000,33,50.8630531254587,12.180600722188482
1557660980000,31,50.862970970478706,12.180608240656612
1557660981000,27,50.86291497613714,12.180678430098888
1557660982000,30,50.86287744464404,12.180779077504969
1557660983000,29,50.86284067462031,12.18087993877979
1557660984000,31,50.86283007870684,12.180994401318841
1557660985000,32,50.8628494020023,12.181111343807457
1557660986000,36,50.862889833364974,12.181225808317933
1557660987000,37,50.8629391723493,12.181348991682654
1557660988000,39,50.862987393091636,12.181485702034928
1557660989000,41,50.86303447439691,12.181629551480267
1557660990000,42,50.86308346017393,12.181767927100816
1557660991000,42,50.86308823681887,12.181941246591135
1557660992000,42,50.86310297356124,12.182108942183008
1557660993000,42,50.86311210582229,12.182275947085426
1557660994000,41,50.86311924514082,12.182441594683905
1557660995000,42,50.86313111168519,12.18260972441665
1557660996000,43,50.863146679399456,12.182783666907053
1557660997000,43,50.86316414046725,12.182958576326797
1557660998000,43,50.86317943348712,12.183133789152233
1557660999000,43,50.86318814696514,12.18330509246815
1557661000000,42,50.86319078166319,12.183473735209136
1557661001000,43,50.86319731538852,12.183641371056712
1557661002000,41,50.863192429057214,12.1838100349722
1557661003000,44,50.8631931484348,12.1839796495408
1557661004000,42,50.863193666272096,12.184152035177178
1557661005000,39,50.86319660622045,12.184312266448625
1557661006000,35,50.86319896461707,12.184458473154605
1557661007000,31,50.86320447267138,12.184588855047581
1557661008000,28,50.86320829335736,12.184702806787344
1557661009000,30,50.863195797998195,12.184813169763117
1557661010000,34,50.863157824804304,12.18492767068859
1557661011000,35,50.86309486268184,12.185023592079084
1557661012000,37,50.8630151715013,12.185083328231133
1557661013000,42,50.862927033813584,12.185141596090197
1557661014000,41,50.86283556577798,12.1852032044376
1557661015000,40,50.862741471094786,12.185262569201466
1557661016000,41,50.862656858591436,12.185357153641302
1557661017000,42,50.86258784297967,12.185478561599112
1557661018000,43,50.86252533708929,12.185620357835173
1557661019000,41,50.86247265691202,12.18577757735485
1557661020000,40,50.86242688045196,12.185934915468875
1557661021000,38,50.86238404455849,12.18608546804233
1557661022000,37,50.86236480928826,12.186237140192368
1557661023000,39,50.86236370252565,12.186391352303916
1557661024000,41,50.86237021439039,12.186544324043442
1557661025000,38,50.86238768349289,12.18669204185554
1557661026000,37,50.86241961440956,12.186825493386685
1557661027000,35,50.86244972014479,12.18695341117025
1557661028000,34,50.862475254634774,12.18707697858416
1557661029000,34,50.86249195744212,12.187205765575204
1557661030000,33,50.8625186141854,12.187334564331762
1557661031000,34,50.86256503554946,12.187445906009874
1557661032000,35,50.862617105768805,12.18755712912928
1557661033000,35,50.86267768948078,12.18765655231142
1557661034000,35,50.86274475577819,12.187744820106085
1557661035000,36,50.86281363981877,12.187832109915133
1557661036000,36,50.862878057427714,12.187929892247782
1557661037000,37,50.86293724907092,12.188040075048042
1557661038000,37,50.86299596631265,12.188157289944275
1557661039000,38,50.863060240444675,12.188270795224772
1557661040000,39,50.863130990771154,12.18837819856334
1557661041000,38,50.86320028652086,12.188488329908157
1557661042000,38,50.863265108141796,12.188601066981402
1557661043000,33,50.8633219900435,12.188708954446419
1557661044000,31,50.8633764642475,12.188810329548131
1557661045000,29,50.86342909373671,12.188898073433023
1557661046000,28,50.863483492907,12.188972362462758
1557661047000,26,50.86354317998145,12.188989355947607
1557661048000,23,50.86359179622145,12.18898153925543
1557661049000,20,50.863631343214166,12.188958016002623
1557661050000,15,50.86366327519225,12.188940731967866
1557661051000,11,50.86367367748646,12.18893497968769
1557661052000,9,50.86368292635254,12.188930625148153
1557661053000,8,50.863700569262605,12.188926595179229
1557661054000,9,50.863720369240845,12.188928857025607
1557661055000,13,50.86375336552487,12.188958230635997
1557661056000,19,50.86379759295288,12.189039958390927
1557661057000,24,50.86383350160105,12.18913583410167
1557661058000,29,50.86386632686889,12.189249776262086
1557661059000,35,50.86390077722445,12.18937646094751
1557661060000,39,50.863944474118114,12.189523172414136
1557661061000,43,50.86396573622882,12.18971076089851
1557661062000,45,50.86398168500873,12.189902948232062
1557661063000,46,50.86398582760192,12.19010532190809
1557661064000,47,50.863990210121344,12.190308842084509
1557661065000,48,50.86399937735419,12.190508149087828
1557661066000,49,50.86401028754256,12.1907090569168
1557661067000,50,50.86401618040214,12.190920150403878
1557661068000,50,50.86402866522404,12.191123935514831
1557661069000,51,50.864041947306646,12.19132632847316
1557661070000,51,50.86405838537985,12.191531007391145
1557661071000,51,50.86407227164258,12.191739335295422
1557661072000,51,50.86408935292679,12.191945523435592
1557661073000,52,50.86410817631106,12.19215173108979
1557661074000,52,50.864128120636344,12.192359960944755
1557661075000,52,50.86414048243628,12.192571902212658
1557661076000,53,50.86415603001733,12.192782772879584
1557661077000,53,50.86417349877018,12.192994218771627
1557661078000,53,50.86419412741067,12.193206513422924
1557661079000,54,50.86421815147002,12.193418495284332
1557661080000,54,50.864244149827755,12.19363125891935
1557661081000,54,50.864270521423904,12.19384556272
1557661082000,55,50.86429464625834,12.194062415042438
1557661083000,56,50.86431924613027,12.194283480464923
1557661084000,57,50.8643421856995,12.194509781866495
1557661085000,58,50.86436688612618,12.194741716601863
1557661086000,60,50.86439296437542,12.194980531310929
1557661087000,62,50.86442046042401,12.195226155698107
1557661088000,64,50.86444837805602,12.195476056611458
1557661089000,65,50.86447559753692,12.195730775705359
1557661090000,65,50.86449944106025,12.19598765987733
1557661091000,65,50.86452477031,12.196245179159112
1557661092000,66,50.86455112309277,12.196503552071345
1557661093000,66,50.86457858596907,12.196762995235675
1557661094000,67,50.86460029949204,12.197026895826081
1557661095000,67,50.86462479881266,12.197291336171588
1557661096000,68,50.86464439386232,12.197557730929828
1557661097000,68,50.86465864567336,12.19782766169343
1557661098000,69,50.86466741672375,12.198101384213027
1557661099000,70,50.864669986823024,12.198379124944884
1557661100000,71,50.86467163847789,12.1986603595006
1557661101000,70,50.86467004503515,12.198942233773467
1557661102000,72,50.86466182408684,12.199226497512049
1557661103000,72,50.86465452383349,12.19951561610448
1557661104000,73,50.864635886873515,12.199805653991998
1557661105000,74,50.86462189022989,12.200096473450797
1557661106000,74,50.86460559554407,12.200389745180988
1557661107000,74,50.86459247513735,12.2006836600016
1557661108000,74,50.86458110957312,12.200977965204128
1557661109000,74,50.86457008511358,12.201272427688744
1557661110000,73,50.86455970398804,12.201565015414348
1557661111000,73,50.864548075631554,12.201854937499768
1557661112000,71,50.86454119339729,12.202141171793658
1557661113000,68,50.86452947346077,12.202417083862287
1557661114000,66,50.8645365754145,12.202684991311944
1557661115000,64,50.86454647930131,12.202943041047599
1557661116000,63,50.86456836251618,12.203193118829258
1557661117000,61,50.864609636945595,12.203430694423174
1557661118000,60,50.864655113852045,12.203660988307709
1557661119000,58,50.864705857193954,12.203883015322296
1557661120000,54,50.86476966709264,12.20408153764492
1557661121000,53,50.8648416266665,12.204267094896995
1557661122000,53,50.864915173071324,12.204449518230067
1557661123000,52,50.86499195408698,12.204622657438046
1557661124000,51,50.86507007976844,12.204787553110604
1557661125000,50,50.865149940550005,12.204943863526232
1557661126000,50,50.86523468596592,12.205090966681652
1557661127000,49,50.86532072751298,12.205233075030563
1557661128000,49,50.865413119528725,12.205361778429008
1557661129000,49,50.8655068404792,12.205490601909014
1557661130000,49,50.86559877587925,12.205623206101551
1557661131000,49,50.86568712220238,12.205762124794452
1557661132000,49,50.86578351723924,12.20588639563206
1557661133000,49,50.865880194536764,12.206010748543852
1557661134000,49,50.86597631540487,12.20613463118032
1557661135000,48,50.8660660503406,12.20626542325271
1557661136000,48,50.86615472158655,12.206394983309833
1557661137000,47,50.86624115998132,12.206526285928463
1557661138000,47,50.86632534467934,12.206658165367918
1557661139000,47,50.86640667914808,12.206792581884162
1557661140000,46,50.86648860612918,12.206927590126828
1557661141000,46,50.866553271694215,12.207083229937554
1557661142000,46,50.86660616406965,12.207244766833444
1557661143000,46,50.86664867495977,12.207412465988384
1557661144000,46,50.86666956444275,12.20758631847687
1557661145000,46,50.86668175855623,12.20776550123973
1557661146000,46,50.866698180941775,12.207946809847337
1557661147000,46,50.86671306611344,12.208132665290929
1557661148000,46,50.86672316718973,12.208316040260108
1557661149000,46,50.8667519811309,12.208489782602134
1557661150000,46,50.866785644455575,12.208661750859571
1557661151000,47,50.866817908310594,12.208837377529997
1557661152000,47,50.866868716465476,12.209006246527107
1557661153000,48,50.86692349967336,12.20917599887344
1557661154000,48,50.86698122715497,12.209345485440243
1557661155000,48,50.86703792609588,12.20951646023466
1557661156000,48,50.86709191854239,12.209690190798423
1557661157000,49,50.86714227909736,12.209869079790625
1557661158000,49,50.86718743877741,12.210052583726371
1557661159000,49,50.867222642958296,12.210237053530635
1557661160000,48,50.867248253155296,12.21042362362752
1557661161000,47,50.8672707058348,12.21060841454069
1557661162000,47,50.86728631873126,12.210793148871423
1557661163000,46,50.867294486514545,12.210979489360126
1557661164000,46,50.86730153284757,12.211163826899835
1557661165000,46,50.86731289382568,12.211347904239792
1557661166000,47,50.86732963846124,12.211533103105314
1557661167000,48,50.86734787852044,12.211720193732546
1557661168000,50,50.867367597504376,12.211912114768083
1557661169000,51,50.86739472689651,12.212109888140747
1557661170000,52,50.8674282342672,12.212310506640074
1557661171000,55,50.86746031419208,12.212518108309657
1557661172000,57,50.8674967173284,12.212734767159425
1557661173000,59,50.86753491975891,12.21295992684027
1557661174000,62,50.86757294267982,12.21319373010302
1557661175000,64,50.86761249049547,12.213436442462584
1557661176000,67,50.86765151374374,12.2136894752532
1557661177000,68,50.867694160729364,12.213950056945798
1557661178000,69,50.86773688321545,12.214214354478694
1557661179000,69,50.867777622682794,12.214480564400425
1557661180000,69,50.8678216800175,12.214746562188411
1557661181000,69,50.8678685141587,12.215012423203765
1557661182000,69,50.86791355141037,12.215279709048506
1557661183000,69,50.86795901354145,12.215546626269212
1557661184000,69,50.86800608893033,12.215812998100638
1557661185000,69,50.86805330929393,12.216079662514325
1557661186000,70,50.86809960883769,12.216347731588758
1557661187000,70,50.868143390739476,12.216618556497119
1557661188000,71,50.86818907298564,12.216890590311879
1557661189000,71,50.868235190333124,12.21716444859569
1557661190000,72,50.86828459816551,12.217438996411746
1557661191000,72,50.868339568864194,12.217713759999825
1557661192000,71,50.868398877065175,12.2179852153749
1557661193000,69,50.868463779898825,12.218247984076154
1557661194000,68,50.868537076855354,12.218499654222441
1557661195000,67,50.868612001267735,12.218745436267207
1557661196000,65,50.86868749966393,12.21898251905093
1557661197000,61,50.868760371984955,12.219209278583795
1557661198000,56,50.8688268567122,12.219422030129923
1557661199000,47,50.86889162216237,12.219605275158544
1557661200000,42,50.868950491819916,12.219763043672382
1557661201000,37,50.868990070985944,12.21990593955183
1557661202000,33,50.86900442400608,12.220038818784875
1557661203000,31,50.868985756758974,12.220158294520102
1557661204000,31,50.86894687691431,12.220263519961586
1557661205000,28,50.868912532363595,12.220366985305482
1557661206000,26,50.86887401880194,12.220458757134034
1557661207000,27,50.8688608463053,12.220559792732061
1557661208000,26,50.868874056314276,12.220666307894835
1557661209000,26,50.8689168515707,12.22074631064353
1557661210000,30,50.868982445612794,12.220789598401726
1557661211000,32,50.86906549805084,12.22077598952971
1557661212000,34,50.869150882281566,12.220769313068937
1557661213000,37,50.8692404108955,12.220804512905804
1557661214000,41,50.86932470502951,12.220885219053987
1557661215000,43,50.869398160265035,12.221007723511354
1557661216000,46,50.869458807667215,12.22116064032411
1557661217000,50,50.86951597631748,12.221333238760975
1557661218000,53,50.86957901489335,12.22151728502394
1557661219000,57,50.86964588473811,12.22171166217919
1557661220000,59,50.8697168363016,12.221915680177005
1557661221000,61,50.86978668303584,12.222129821454326
1557661222000,63,50.8698565680107,12.222352256357308
1557661223000,64,50.8699302568362,12.2225780400419
1557661224000,66,50.870004278362494,12.222811500138853
1557661225000,67,50.87007988946936,12.223049873481349
1557661226000,68,50.87015717496738,12.223291564053012
1557661227000,68,50.87023149464168,12.223537089093947
1557661228000,69,50.87030464007328,12.223784813198474
1557661229000,68,50.8703725114388,12.224037595275552
1557661230000,67,50.870438506076525,12.224288286284029
1557661231000,65,50.870494799264364,12.224535207300708
1557661232000,62,50.870543068825064,12.22477565611788
1557661233000,62,50.87058119154034,12.225014259510857
1557661234000,62,50.87061962064281,12.2252539888006
1557661235000,62,50.870655156127015,12.22549251203997
1557661236000,62,50.870696118189784,12.225728870800038
1557661237000,62,50.87074550545487,12.225962078432461
1557661238000,63,50.870805294038,12.22619238207362
1557661239000,64,50.87087394890659,12.226420663868202
1557661240000,64,50.870948157645294,12.226648517159422
1557661241000,65,50.871024258029095,12.226878792701397
1557661242000,66,50.87110890368093,12.227104689701752
1557661243000,65,50.871206983795275,12.22731712310145
1557661244000,65,50.87130879894076,12.227522176714139
1557661245000,66,50.871421495706024,12.22771725884647
1557661246000,66,50.87153734568427,12.227912183074855
1557661247000,67,50.87164587722436,12.228120799292094
1557661248000,66,50.87175510220595,12.22832460660282
1557661249000,67,50.87186412059784,12.228526431247928
1557661250000,68,50.87197025210516,12.228736777697723
1557661251000,67,50.87207320308685,12.228951915801275
1557661252000,66,50.87217336418898,12.229169346329833
1557661253000,66,50.872266125948386,12.229391217291454
1557661254000,64,50.87235141398242,12.229614841137694
1557661255000,60,50.872427492524835,12.229833917242507
1557661256000,57,50.87249795166039,12.230041250547997
1557661257000,52,50.87255466034097,12.230240870901802
1557661258000,45,50.87260633296585,12.230418038588764
1557661259000,37,50.87265108185083,12.230567541732631
1557661260000,31,50.87268595420602,12.23069297719953
1557661261000,25,50.87271644771954,12.23079685083158
1557661262000,20,50.87274155427524,12.230879153273927
1557661263000,14,50.87275992561647,12.230940620688187
1557661264000,8,50.87277168048614,12.230982934874005
1557661265000,9,50.87278245491576,12.231008252674819
1557661266000,16,50.87279073504812,12.231057066572253
1557661267000,24,50.872812996561095,12.231130517786283
1557661268000,30,50.872844032633466,12.231228312676162
1557661269000,35,50.87288159965342,12.231346098872118
1557661270000,40,50.872924403110865,12.231480450798323
1557661271000,43,50.8729697810181,12.231628247597007
1557661272000,48,50.87303071936213,12.231777635947903
1557661273000,51,50.87308502127808,12.231954775216659
1557661274000,54,50.87314259559048,12.23214282434647
1557661275000,56,50.87320577037111,12.232339801304072
1557661276000,58,50.873270082603746,12.232545101683483
1557661277000,60,50.87334612954324,12.232745736518764
1557661278000,62,50.87341991227033,12.232957995397959
1557661279000,64,50.87348486124628,12.233188563266701
1557661280000,67,50.87355344348058,12.233425490833582
1557661281000,68,50.87362547613011,12.233667983797234
1557661282000,70,50.87370161446924,12.233914506515582
1557661283000,72,50.87378001891664,12.234166172026924
1557661284000,73,50.873861519829106,12.23442253196143
1557661285000,75,50.87394595751137,12.234684360612507
1557661286000,77,50.87403357239382,12.234949392687094
1557661287000,78,50.8741221014955,12.235224125711442
1557661288000,79,50.874212325465685,12.235503919418562
1557661289000,81,50.874306123898435,12.235787282701878
1557661290000,83,50.87441506880631,12.236062759279836
1557661291000,84,50.874521395743024,12.236347454679406
1557661292000,86,50.8746274908421,12.236639364819519
1557661293000,87,50.87473486390761,12.236938085285688
1557661294000,89,50.87484298111841,12.237243732180493
1557661295000,90,50.87494291385907,12.23756456112298
1557661296000,91,50.87505544288231,12.237877084131052
1557661297000,92,50.87516690315929,12.238195761965633
1557661298000,93,50.87527738246,12.238519872546727
1557661299000,94,50.87539134540804,12.238845177771209
1557661300000,95,50.875502573163196,12.239174956198351
1557661301000,95,50.875615549176054,12.239506121140705
1557661302000,95,50.87573027712441,12.239838198201339
1557661303000,96,50.875839663583946,12.240173581432403
1557661304000,96,50.87594339094206,12.240516570660906
1557661305000,96,50.87604507013693,12.240861023273261
1557661306000,95,50.87614482723341,12.24120688504199
1557661307000,95,50.87623579576325,12.241557114889092
1557661308000,95,50.876327351109474,12.241907328817929
1557661309000,95,50.87641362632912,12.242262934273366
1557661310000,96,50.87650284259054,12.242617168040328
1557661311000,96,50.87659360532566,12.242970155916998
1557661312000,97,50.87668571730164,12.243324606320682
1557661313000,97,50.87677853579398,12.243681539399844
1557661314000,97,50.87687290803553,12.244038782373886
1557661315000,97,50.876968832485794,12.244394974613948
1557661316000,97,50.87706531937429,12.244751369826853
1557661317000,98,50.87715569609197,12.245111837276273
1557661318000,98,50.87724978071403,12.245470206384649
1557661319000,98,50.87734630894906,12.245827393168648
1557661320000,98,50.87744579370706,12.246184368218596
1557661321000,98,50.87754451923646,12.246542032320198
1557661322000,98,50.877643116800705,12.246899215121948
1557661323000,99,50.877743791191136,12.247256239220427
1557661324000,99,50.87784565319377,12.247613633725889
1557661325000,99,50.87794706205236,12.247971463784458
1557661326000,99,50.878048282612035,12.248330332512863
1557661327000,99,50.87814943202085,12.248688298666135
1557661328000,99,50.87824873391834,12.249046325512513
1557661329000,99,50.87834987154609,12.249403623159013
1557661330000,98,50.87845165752688,12.249759414335317
1557661331000,98,50.878553211845606,12.250114813827397
1557661332000,98,50.8786554727358,12.2504662717568
1557661333000,98,50.87876368183506,12.250814630098342
1557661334000,99,50.87886972378605,12.251167494109858
1557661335000,99,50.87897493662974,12.251522329092094
1557661336000,99,50.87908011441993,12.251878480701313
1557661337000,100,50.87918624483016,12.252235312244846
1557661338000,101,50.8792906155332,12.252596161019833
1557661339000,101,50.87939384649688,12.252961211288957
1557661340000,101,50.87949711091098,12.253328059907972
1557661341000,102,50.879601722668006,12.253696145290105
1557661342000,102,50.87970683418874,12.25406483965316
1557661343000,102,50.87981166444637,12.254433982774431
1557661344000,100,50.87991550732862,12.254800202008324
1557661345000,99,50.88001822890968,12.2551617317762
1557661346000,97,50.880118599737045,12.2555181217711
1557661347000,96,50.880218178928445,12.255867867183111
1557661348000,94,50.88031694128501,12.256211943259942
1557661349000,93,50.880413609455715,12.256551755329415
1557661350000,92,50.88050819903415,12.256887611797175
1557661351000,90,50.88059872790002,12.257219954442677
1557661352000,89,50.88068492209521,12.257550019565466
1557661353000,88,50.88076351681731,12.257879969207575
1557661354000,87,50.880836759320054,12.258203919378083
1557661355000,86,50.880906310153286,12.258525388860482
1557661356000,83,50.880971523747014,12.258845741030347
1557661357000,81,50.881048184330346,12.259146211068353
1557661358000,78,50.881106944555725,12.25944792593686
1557661359000,70,50.88115992055854,12.259730185712714
1557661360000,62,50.88120648715848,12.259984125816722
1557661361000,57,50.88125737200775,12.260202477752872
1557661362000,54,50.88130685239873,12.260404366582407
1557661363000,51,50.88135886710113,12.26059342812542
1557661364000,50,50.88141445805545,12.260772847485516
1557661365000,44,50.88146151152898,12.260943321522406
1557661366000,38,50.88149818788184,12.261095654204704
1557661367000,31,50.88152395979247,12.26122702106489
1557661368000,26,50.88154742190374,12.261335045320838
1557661369000,23,50.88157221828311,12.261423583387183
1557661370000,25,50.88161705816945,12.261487552087674
1557661371000,25,50.881678057481615,12.261508907777321
1557661372000,26,50.88174326489583,12.261475814197002
1557661373000,26,50.881807292849096,12.261442570127672
1557661374000,27,50.88187425068919,12.261417897444218
1557661375000,28,50.88194454014715,12.261400111697778
1557661376000,30,50.88202196905975,12.261384142499068
1557661377000,32,50.8821023259758,12.26136851366016
1557661378000,33,50.882188984815315,12.261367145425773
1557661379000,33,50.882273089959256,12.26134771986791
1557661380000,35,50.882360162552224,12.261324456211828
1557661381000,36,50.88245115466036,12.261301178878698
1557661382000,37,50.88254498246486,12.261284795315776
1557661383000,37,50.88264014880748,12.261270472371825
1557661384000,37,50.88273452323786,12.26126608395192
1557661385000,38,50.882830080603966,12.26124640567396
1557661386000,38,50.88292648858016,12.261227227081555
1557661387000,39,50.8830240415063,12.261208734190893
1557661388000,40,50.88311995702805,12.261206594003143
1557661389000,41,50.88321922889077,12.261198826283591
1557661390000,42,50.8833230163682,12.261176815496471
1557661391000,42,50.88342854247428,12.261155403659911
1557661392000,43,50.883535822496334,12.261136001833966
1557661393000,43,50.88364178482394,12.261133503593216
1557661394000,43,50.88374887004864,12.261122831731328
1557661395000,44,50.88385915915187,12.261120491618225
1557661396000,44,50.883967941794424,12.261101616237797
1557661397000,45,50.88407796464767,12.261081606912802
1557661398000,44,50.88418818028211,12.261061700007993
1557661399000,45,50.88429948608126,12.26103978607186
1557661400000,44,50.88441073980172,12.261025295170825
1557661401000,45,50.88452321904473,12.26101438761051
1557661402000,45,50.88463615054768,12.260998245813251
1557661403000,44,50.884746773108475,12.260980860869832
1557661404000,44,50.88485692532181,12.260962050823643
1557661405000,44,50.884967272550455,12.260941901860654
1557661406000,44,50.88507777381422,12.26092125368895
1557661407000,46,50.885190886855405,12.260905577650064
1557661408000,45,50.88530459746312,12.260894580341613
1557661409000,45,50.88541719202988,12.260878247699585
1557661410000,45,50.88553054685509,12.260874952658039
1557661411000,46,50.88564516899467,12.260877762872557
1557661412000,46,50.88576005829634,12.260884872105526
1557661413000,46,50.88587657034014,12.260882116226634
1557661414000,46,50.8859925097117,12.260889386654561
1557661415000,47,50.88610931812222,12.260896978353522
1557661416000,47,50.88622909396214,12.260903373695024
1557661417000,48,50.88634881580175,12.260917674849921
1557661418000,47,50.88646967044777,12.260924462339625
1557661419000,47,50.88658997956841,12.260932990627252
1557661420000,47,50.886709547904154,12.26094483827521
1557661421000,46,50.88682787887488,12.260958559960663
1557661422000,46,50.88694534382577,12.260971942156713
1557661423000,46,50.88706306685873,12.260986109276434
1557661424000,46,50.88717987115771,12.261002115178934
1557661425000,45,50.88729515261244,12.261019816742353
1557661426000,43,50.887408307000214,12.261034537345786
1557661427000,41,50.88751589836592,12.26104722811563
1557661428000,40,50.887618465892686,12.261059423279256
1557661429000,40,50.8877207032925,12.261067696529386
1557661430000,39,50.88782021982472,12.261088458528137
1557661431000,39,50.887919741652,12.261122457392583
1557661432000,39,50.88801710228876,12.2611323343667
1557661433000,39,50.888114978988355,12.261140836655855
1557661434000,39,50.88821073653641,12.261151947559718
1557661435000,37,50.88830431780294,12.261165441377806
1557661436000,36,50.88839320901602,12.261179209803107
1557661437000,35,50.8884787081993,12.261188366472696
1557661438000,33,50.8885594367126,12.26119923849312
1557661439000,37,50.88864559083151,12.261235553957915
1557661440000,37,50.888731958518484,12.261274945479837
1557661441000,37,50.88881653224084,12.261334560884555
1557661442000,37,50.88890143059568,12.261397385370396
1557661443000,39,50.88898951528177,12.261470429488101
1557661444000,41,50.88907648634231,12.261553971075847
1557661445000,42,50.889165860895176,12.261642896470496
1557661446000,45,50.88926542264685,12.261729698176165
1557661447000,45,50.8893678312677,12.261813578246274
1557661448000,44,50.88947374381416,12.261903601834645
1557661449000,41,50.88957055756886,12.261982417699867
1557661450000,39,50.88965699882649,12.262046478376108
1557661451000,39,50.88974551771948,12.262098088885184
1557661452000,43,50.88984262188339,12.26215246418775
1557661453000,40,50.889945829697794,12.262208919525909
1557661454000,40,50.890044963177466,12.262262930004363
1557661455000,33,50.89013483467077,12.262291603193818
1557661456000,32,50.89022458328801,12.26228757478305
1557661457000,32,50.89031119363601,12.262274656439294
1557661458000,36,50.89040529722102,12.26221122607088
1557661459000,36,50.890493087046245,12.262127627189464
1557661460000,34,50.89057054474279,12.26202613635608
1557661461000,35,50.89063286158223,12.261901823073698
1557661462000,37,50.890676503827265,12.261753633845958
1557661463000,29,50.89070382917001,12.261625047446477
1557661464000,26,50.89072441666531,12.261523181201616
1557661465000,20,50.890739669241015,12.261432028701925
1557661466000,18,50.89075437907527,12.261361594741597
1557661467000,22,50.89077855108713,12.26129623989713
1557661468000,22,50.89081131732825,12.261241380801884
1557661469000,28,50.890876951162696,12.26123122406004
1557661470000,27,50.89094728461053,12.261247444898869
1557661471000,28,50.89101402392458,12.261278571638982
1557661472000,29,50.891089189449985,12.261322319098158
1557661473000,31,50.89116077873376,12.261378045579564
1557661474000,32,50.89122974218157,12.26143034740758
1557661475000,28,50.89129307991951,12.261483436735658
1557661476000,30,50.89135068971984,12.261540939617836
1557661477000,34,50.89141843226707,12.2616103909929
1557661478000,33,50.891488604353455,12.26169157937581
1557661479000,30,50.89155153181636,12.261768050214673
1557661480000,30,50.891603467533606,12.261842889278544
1557661481000,30,50.89165677107946,12.261930251493412
1557661482000,30,50.891703074244255,12.262023006708203
1557661483000,30,50.89174942503754,12.262124384717149
1557661484000,30,50.89179752034802,12.262232661493448
1557661485000,30,50.891852495982725,12.262345849244804
1557661486000,31,50.89189904309083,12.262452161286273
1557661487000,31,50.891949205298175,12.262566461240992
1557661488000,30,50.89200026371924,12.262676665489943
1557661489000,30,50.892048044848046,12.262772890586877
1557661490000,30,50.89210002130624,12.26287427352897
1557661491000,29,50.892151393025195,12.262962926170601
1557661492000,28,50.89220135226836,12.263041383526954
1557661493000,27,50.89224816314436,12.263114349124685
1557661494000,26,50.892295334836824,12.2631908551475
1557661495000,27,50.89234252463132,12.263275646535735
1557661496000,27,50.89238680118477,12.263371679863422
1557661497000,27,50.8924329530502,12.263466974191456
1557661498000,28,50.89247616359311,12.263566289197112
1557661499000,28,50.89252133690254,12.263665055571488
1557661500000,29,50.89256720198454,12.26376473843582
1557661501000,29,50.89261383130258,12.263862862158703
1557661502000,29,50.89265811931875,12.263970492779386
1557661503000,29,50.892699100500344,12.264076799785919
1557661504000,29,50.89273735136638,12.264185424574027
1557661505000,30,50.89275974299509,12.26430819789116
1557661506000,30,50.892772031038405,12.264441417360581
1557661507000,29,50.89277777484306,12.264558329543124
1557661508000,28,50.89278946010429,12.264666507198347
1557661509000,26,50.89280359447226,12.264764410651436
1557661510000,25,50.892809558916184,12.264858813892396
1557661511000,24,50.8928201263548,12.264950860101225
1557661512000,24,50.89283004553696,12.265049868807091
1557661513000,25,50.89284088215896,12.265170754891187
1557661514000,26,50.892849402704464,12.265314929335172
1557661515000,26,50.892868108438336,12.265441112275655
1557661516000,27,50.89289798258004,12.265573364045999
1557661517000,29,50.892939007005715,12.265708781448257
1557661518000,30,50.892983789149085,12.265834348935016
1557661519000,30,50.89302264645763,12.265965080819399
1557661520000,30,50.89306667245242,12.26607393391061
1557661521000,30,50.89311219064053,12.266174523897348
1557661522000,28,50.893154178278365,12.26626630738823
1557661523000,27,50.893193522194466,12.266346283998361
1557661524000,24,50.893227998003425,12.266419901964182
1557661525000,20,50.89325206088803,12.266485604752834
1557661526000,16,50.893258357247255,12.26655439621199
1557661527000,14,50.89325860452006,12.26660899473564
1557661528000,13,50.89325509559325,12.266659112216491
1557661529000,13,50.89324793631909,12.2667152991862
1557661530000,13,50.893236267008554,12.266774896692526
1557661531000,15,50.89321994749804,12.266838540197428
1557661532000,16,50.89319387971729,12.266908575287191
1557661533000,18,50.893161177877545,12.266975198956832
1557661534000,19,50.89312282421751,12.267043005752047
1557661535000,20,50.893082583236335,12.267108009105476
1557661536000,21,50.893045740302874,12.267165556043613
1557661537000,21,50.893009545384636,12.267220267824232
1557661538000,20,50.89297376486943,12.267273349788999
1557661539000,19,50.89293718087684,12.267322843647285
1557661540000,19,50.89290080441103,12.267380747422669
1557661541000,19,50.89286485493581,12.267436429287981
1557661542000,19,50.89283100993944,12.267486172290187
1557661543000,19,50.89279406686245,12.267547519188664
1557661544000,20,50.89275985399036,12.267603025046833
1557661545000,21,50.892720535058885,12.267672233316967
1557661546000,21,50.89268224826121,12.267740673337444
1557661547000,20,50.89264722210852,12.267805607241524
1557661548000,18,50.89262267976073,12.267870320389473
1557661549000,18,50.892620993183776,12.267924551171436
1557661550000,17,50.892652348420235,12.267976218367528
1557661551000,15,50.89269234998281,12.267999404947627
1557661552000,13,50.89272753092875,12.268008445313313
1557661553000,12,50.89275754154852,12.268018370747095
1557661554000,10,50.89277899443432,12.268027279417813
1557661555000,8,50.89279587506561,12.2680309547907
1557661556000,0,50.89279587506561,12.2680309547907
1557661557000,0,50.89279587506561,12.2680309547907
1557661558000,0,50.89279587506561,12.2680309547907
